Testing quantitative notions of relevance
…
# participants either got questions after "relevance" or "helpfulness"
d %>% group_by(submission_id, group) %>% 
  summarize(n = n())

## # A tibble: 71 x 3
## # Groups:   submission_id [71]
##    submission_id group        n
##            <dbl> <chr>    <int>
##  1          3010 relevant     9
##  2          3011 helpful      9
##  3          3015 helpful      9
##  4          3016 helpful      9
##  5          3017 relevant     9
##  6          3018 helpful      9
##  7          3034 relevant    10
##  8          3035 helpful     10
##  9          3036 helpful     10
## 10          3037 helpful     10
## # ... with 61 more rows

# items were classified in terms of ContextType, AnswerCertainty and AnswerPolarity
d %>% group_by(StimID, ContextType, AnswerCertainty, AnswerPolarity) %>% 
  count()

## # A tibble: 234 x 5
## # Groups:   StimID, ContextType, AnswerCertainty, AnswerPolarity [234]
##    StimID ContextType AnswerCertainty AnswerPolarity     n
##     <dbl> <fct>       <fct>           <fct>          <int>
##  1      1 negative    non_answer      positive           4
##  2      1 negative    low_certainty   positive           2
##  3      1 negative    low_certainty   negative           2
##  4      1 negative    high_certainty  positive           2
##  5      1 negative    high_certainty  negative           6
##  6      1 negative    exhaustive      positive           6
##  7      1 negative    exhaustive      negative           3
##  8      1 neutral     non_answer      positive           4
##  9      1 neutral     low_certainty   positive           2
## 10      1 neutral     low_certainty   negative           3
## # ... with 224 more rows
…
